{
  "defaultSeverity": "error",
  "extends": [
    "tslint:recommended"
  ],
  "jsRules": {},
  "rules": {
    "indent": [true, "spaces", 2],
    "whitespace": [true, "check-branch", "check-decl", "check-operator", "check-typecast", "check-preblock", "check-module"],
    "no-console": [false, "log", "error"],
    "no-bitwise": false,
    "quotemark": [true, "single", "avoid-escape", "avoid-template"]
  },
  "rulesDirectory": [

  ]
}
